{
      "channels": {
            "kp": "lat_control.pid.kp",
            "kd": "lat_control.pid.kd",
            "ki": "lat_control.pid.ki"
      },
      "latitudinal_controller": {
            "1": {
                  "k_p": 0.1,
                  "k_d": 0.1,
                  "k_i": 0.5,
                  "min_dist": 2.0
            },
            "3": {
                  "k_p": 0.1,
                  "k_d": 0.1,
                  "k_i": 0.5,
                  "min_dist": 5.0
            },
            "10": {
                  "k_p": 0.05,
                  "k_d": 0.1,
                  "k_i": 0.2,
                  "min_dist": 10.0
            }
      }
}